<?xml version="1.0" encoding="UTF-8" standalone="no"?>
<!DOCTYPE svg PUBLIC "-//W3C//DTD SVG 1.1//EN" "http://www.w3.org/Graphics/SVG/1.1/DTD/svg11.dtd">
<svg width="100%" height="100%" viewBox="0 0 307 230" version="1.1" xmlns="http://www.w3.org/2000/svg" xmlns:xlink="http://www.w3.org/1999/xlink" xml:space="preserve" xmlns:serif="http://www.serif.com/" style="fill-rule:evenodd;clip-rule:evenodd;stroke-linejoin:round;stroke-miterlimit:1.41421;">
    <path d="M153.3,76.7L153.3,0L76.7,0L76.7,76.7L0,76.7L0,230L153.4,230L153.4,153.3L230,153.3L230,76.7L306.7,76.7L306.7,0L230,0L230,76.7L153.3,76.7ZM153.3,76.7L153.3,153.4L76.7,153.4L76.7,76.7L153.3,76.7Z" style="fill:white;fill-rule:nonzero;"/>
</svg>
